…
Let's first look at the number of car listings by brand.


```r
top_listings <- auto_info %>% 
  select(brand) %>% group_by(Brand = brand) %>% 
  summarise(Total = length(Brand)) %>% 
  arrange(desc(Total))

top_listings
```

```
# A tibble: 40 x 2
   Brand         Total
   <chr>         <int>
 1 volkswagen    10188
 2 bmw            5284
 3 opel           5195
 4 mercedes_benz  4580
 5 audi           4149
 6 ford           3352
 7 renault        2274
 8 peugeot        1418
 9 fiat           1242
10 seat            873
# … with 30 more rows
```
…
